{
  "profiles": {
    "Services.NotificationService.Domain": {
      "commandName": "Project",
      "launchBrowser": true,
      "environmentVariables": {
        "ASPNETCORE_ENVIRONMENT": "Development"
      },
      "applicationUrl": "https://localhost:51030;http://localhost:51031"
    }
  }
}